[
  {
    "Name": "PCR506",
    "Id": 1,    
    "IsLNTable": false,
    "Columns": [
      {
        "DisplayOrder": 1,
        "Name": "t_cprj",
        "Type": "string",
        "ReferenceColumn": "t_cprj",
        "DescriptionColumn": "t_dsca",
        "DependentOnColumn": null,
        "ReferenceTable":"ttppdm600",
        "DisplayName": "Project",
        "Constraints": null,
        "Id": 1,
        "IsMandatory": true
      },
      {
        "DisplayOrder": 2,
        "Name": "t_cspa",
        "Type": "string",
        "ReferenceColumn": "t_cspa",
        "DescriptionColumn": "t_desc",
        "DependentOnColumn": "t_cprj",
        "ReferenceTable":"ttpptc100",
        "DisplayName": "Element",
        "Constraints": null,
        "Id": 2,
        "IsMandatory": true
      },
      {
        "DisplayOrder": 3,
        "Name": "t_mitm",
        "Type": "string",
        "ReferenceColumn": null,
        "DescriptionColumn": null,
        "DependentOnColumn": null,
        "ReferenceTable": null,
        "DisplayName": "Manufacturing Item",
        "Constraints": null,
        "Id": 3,
        "IsMandatory": true
      },
      {
        "DisplayOrder": 4,
        "Name": "t_sern",
        "Type": "numeric",
        "ReferenceColumn": null,
        "DependentOnColumn": null,
        "DescriptionColumn": null,
        "ReferenceTable": null,
        "DisplayName": "Budget Line",
        "Constraints": null,
        "Id": 4,
        "IsMandatory": true
      },
      {
        "DisplayOrder": 5,
        "Name": "t_seqn",
        "Type": "numeric",
        "ReferenceColumn": null,
        "DependentOnColumn": null,
        "DescriptionColumn": null,
        "ReferenceTable": null,
        "DisplayName": "Sequence",
        "Constraints": null,
        "Id": 5,
        "IsMandatory": true
      },
      {
        "DisplayOrder": 6,
        "Name": "t_sitm",
        "Type": "string",
        "ReferenceColumn": null,
        "DependentOnColumn": null,
        "DescriptionColumn": null,
        "ReferenceTable": null,
        "DisplayName": "Child Item",
        "Constraints": null,
        "Id": 6,
        "IsMandatory": true
      },
      {
        "DisplayOrder": 7,
        "Name": "t_revi",
        "Type": "string",
        "ReferenceColumn": null,
        "DependentOnColumn": null,
        "DescriptionColumn": null,
        "ReferenceTable": null,
        "DisplayName": "Item Revision",
        "Constraints": null,
        "Id": 7,
        "IsMandatory": true
      },
      {
        "DisplayOrder": 8,
        "Name": "t_leng",
        "Type": "numeric",
        "ReferenceColumn": null,
        "DependentOnColumn": null,
        "DescriptionColumn": null,
        "ReferenceTable": null,
        "DisplayName": "Length",
        "Constraints": null,
        "Id": 8,
        "IsMandatory": true
      },
      {
        "DisplayOrder": 9,
        "Name": "t_widt",
        "Type": "numeric",
        "ReferenceColumn": null,
        "DescriptionColumn": null,
        "DependentOnColumn": null,
        "ReferenceTable": null,
        "DisplayName": "Width",
        "Constraints": null,
        "Id": 9,
        "IsMandatory": true
      }
    ], 
    "Indices": [
      {
        "Name": "Index1",
        "IsDefault": true,
        "Columns": [
          {
            "Id": 1,
            "Order": 1,
            "Direction": "asc"
          },
          {
            "Id": 2,
            "Order": 2,
            "Direction": "asc"
          },
          {
            "Id": 4,
            "Order": 3,
            "Direction": "asc"
          }
        ]
      }
    ]
  },
  {
    "Name": "ttppdm600",
    "Id": 2,
    "IsLNTable": true,
    "Columns": [
      {
        "DisplayOrder": 1,
        "Name": "t_cprj",
        "Type": "string",
        "ReferenceColumn": null,
        "DescriptionColumn": null,
        "DependentOnColumn": null,
        "ReferenceTable": null,
        "DisplayName": "Project",
        "Constraints": null,
        "Id": 1,
        "IsMandatory": true
      },
      {
        "DisplayOrder": 2,
        "Name": "t_dsca",
        "Type": "string",
        "ReferenceColumn": null,
        "DescriptionColumn": null,
        "DependentOnColumn": null,
        "ReferenceTable": null,
        "DisplayName": "Description",
        "Constraints": null,
        "Id": 2,
        "IsMandatory": true
      }

    ],
    "Indices": [
      {
        "Name": "Index1",
        "IsDefault": true,
        "Columns": [
          {
            "Id": 1,
            "Order": 1,
            "Direction": "asc"
          },
          {
            "Id": 2,
            "Order": 2,
            "Direction": "asc"
          }
        ]
      }
    ]
  },
  {
    "Name": "ttpptc100",
    "Id": 3,
    "IsLNTable": true,
    "Columns": [
      {
        "DisplayOrder": 1,
        "Name": "t_cprj",
        "Type": "string",
        "ReferenceColumn": null,
        "DescriptionColumn": null,
        "ReferenceTable": null,
        "DisplayName": "Project",
        "Constraints": null,
        "Id": 1,
        "IsMandatory": true
      },
      {
        "DisplayOrder": 2,
        "Name": "t_cspa",
        "Type": "string",
        "ReferenceColumn": null,
        "DescriptionColumn": null,
        "ReferenceTable": null,
        "DisplayName": "Element",
        "Constraints": null,
        "Id": 2,
        "IsMandatory": true
      },
      {
        "DisplayOrder": 3,
        "Name": "t_desc",
        "Type": "string",
        "ReferenceColumn": null,
        "DescriptionColumn": null,
        "ReferenceTable": null,
        "DisplayName": "Description",
        "Constraints": null,
        "Id": 3,
        "IsMandatory": true
      }

    ],    
    "Indices": [
      {
        "Name": "Index1",
        "IsDefault": true,
        "Columns": [
          {
            "Id": 1,
            "Order": 1,
            "Direction": "asc"
          },
          {
            "Id": 2,
            "Order": 2,
            "Direction": "asc"
          }
        ]
      }
    ]
  }
]