[
  {
    "Id": 1,
    "Name": "GeneratePCR",
    "FriendlyName": "Generate PCR",
    "WindowTypeId": 0,
    "OccurenceTypeId": 1,
    "MainSessionId": 1,
    "SatelliteSessionIds": null

  },
  {
    "Id": 2,
    "Name": "DialogBox",
    "FriendlyName": "Dialog Box",
    "WindowTypeId": 2,
    "OccurenceTypeId": 1,
    "MainSessionId": 0,
    "SatelliteSessionIds": null
  }
]